Aspects of Major
…
library(fivethirtyeight)
library(ggplot2)
library(dplyr)
library(tidyverse)
library(cluster)

Joining and Tidying

CollegeData <- inner_join(college_recent_grads, college_grad_students)
CollegeData %>% pivot_longer(c("college_jobs", "non_college_jobs", 
    "low_wage_jobs"), names_to = "Job.Type", values_to = "Number.of.Individuals")

## # A tibble: 519 x 39
##     rank major_code major major_category total sample_size   men women
##    <int>      <int> <chr> <chr>          <int>       <int> <int> <int>
##  1     1       2419 Petr… Engineering     2339          36  2057   282
##  2     1       2419 Petr… Engineering     2339          36  2057   282
##  3     1       2419 Petr… Engineering     2339          36  2057   282
##  4     2       2416 Mini… Engineering      756           7   679    77
##  5     2       2416 Mini… Engineering      756           7   679    77
##  6     2       2416 Mini… Engineering      756           7   679    77
##  7     3       2415 Meta… Engineering      856           3   725   131
##  8     3       2415 Meta… Engineering      856           3   725   131
##  9     3       2415 Meta… Engineering      856           3   725   131
## 10     4       2417 Nava… Engineering     1258          16  1123   135
## # … with 509 more rows, and 31 more variables: sharewomen <dbl>,
## #   employed <int>, employed_fulltime <int>, employed_parttime <int>,
## #   employed_fulltime_yearround <int>, unemployed <int>,
## #   unemployment_rate <dbl>, p25th <dbl>, median <dbl>, p75th <dbl>,
## #   grad_total <int>, grad_sample_size <int>, grad_employed <int>,
## #   grad_employed_fulltime_yearround <int>, grad_unemployed <int>,
## #   grad_unemployment_rate <dbl>, grad_p25th <dbl>, grad_median <dbl>,
## #   grad_p75th <int>, nongrad_total <int>, nongrad_employed <int>,
## #   nongrad_employed_fulltime_yearround <int>, nongrad_unemployed <int>,
…
